0.10081243464353479
0.10245050493160465
0.10411519172068599
0.10580692749412901
0.10752615176257307
0.10927331117813094
0.11104885965042834
0.11285325846452912
0.11468697640077649
0.11655048985658142
0.11844428297019013
0.1203688477464625
0.1223246841846943
0.12431230040851624
0.12633221279790388
0.1283849461233324
0.13047103368211121
0.13259101743693402
0.13474544815667983
0.13693488555950195
0.13915989845824217
0.14142106490820733
0.14371897235734749
0.14605421779887404
0.1484274079263576
0.15083915929134645
0.15329009846354547
0.15578086219359832
0.15831209757851428
0.16088446222978314
0.1634986244442219
0.16615526337759728
0.1688550692210694
0.1715987433805026
0.1743869986586897
0.17722055944053716
0.18010016188125932
0.18302655409763047
0.18600049636234461
0.1890227613015333
0.19209413409549275
0.19521541268267262
0.19838740796697946
0.20161094402844829
0.20488685833733755
0.2082160019717027
0.21159923983850504
0.21503745089831355
0.21853152839365755
0.2220823800810898
0.22569092846702055
0.22935811104738327
0.23308488055119508
0.23687220518807423
0.24072106889977965
0.24463247161583773
0.24860742951332265
0.2526469752808578
0.2567521583869067
0.26092404535242364
0.26516372002793465
0.2694722838751197
0.27385085625297145
0.278300574708603
0.28282259527278114
0.28741809276026165
0.2920882610750042
0.2968343135203475
0.3016574831142234
0.3065590229094935
0.3115402063194904
0.316602327448849
0.32174670142971273
0.32697466476340353
0.3322875756676427
0.3376868144294143
0.34317378376356145
0.34874990917721005
0.3544166393401136
0.3601754464610152
0.3660278266701259
0.371975300407817
0.37801941281962825
0.38416173415769506
0.3904038601886973
0.39674741260843743
0.40319403946315513
0.40974541557768707
0.41640324299058445
0.42316925139630013
0.4300451985945608
0.43703287094704113
0.4441340838414579
0.4513506821632056
0.4586845407746545
0.4661375650022379
0.47371169113145317
0.481408886909906
0.4892311520585285
0.49718051879110414
0.5052590523422338
0.5134688515038814
0.5218120491706368
0.5302908128938388
0.5389073454447024
0.5476638853865953
0.556562707656614
0.565606124156609
0.5747964843538143
0.5841361758912351
0.5936276252079544
0.6032732981695188
0.613075700708567
0.623037379475867
0.6331609225019333
0.6434489598693935
0.65390416439628
0.664529252330424
0.6753269840551339
0.6863001648063389
0.6974516454013849
0.7087843229796733
0.720301141755334
0.7320050937821279
0.7438992197307784
0.7559866096789339
0.7682704039139654
0.7807537937488087
0.7934400223510636
0.8063323855855639
0.819434232870639
0.8327489680482881
0.8462800502684935
0.8600309948879031
0.8740053743831155
0.8882068192788042
0.9026390190909228
0.9173057232852371
0.9322107422514301
0.9473579482930368
0.9627512766334627
0.9783947264383501
0.9942923618545552
1.0104483130660085
1.0268667773667306
1.0435520202512836
1.0605083765229404
1.0777402514198617
1.0952521217595692
1.1130485371020182
1.131134120931566
1.1495135718581473
1.1681916648379667
1.1871732524140255
1.2064632659768058
1.2260667170454393
1.2459886985696929
1.2662343862531094
1.28680903989765
1.3077180047701817
1.3289667129911713
1.3505606849459428
1.3725055307188656
1.3948069515508477
1.4174707413205088
1.4405027880494226
1.4639090754318183
1.487695684389134
1.5118687946498324
1.5364346863548863
1.5613997416893506
1.5867704465404442
1.6125533921825763
1.6387552769897495
1.6653829081757878
1.692443203562842
1.7199431933786309
1.747890022082884
1.776290950223462
1.8051533563226392
1.834484738794031
1.8642927178906736
1.8945850376847533
1.925369568079508
1.9566543068538158
1.9884473817400075
2.0207570525354397
2.0535917132483803
2.086959894278759
2.120870264634354
2.1553316341829882
2.1903529559413224
2.225943328400833
2.2621119978915925
2.2988683609844482
2.336221966932244
2.3741825201506987
2.4127598827396017
2.4519640770449733
2.4918052882628556
2.5322938670854143
2.5734403323900303
2.615255373972097
2.657749855322206
2.700934816448472
2.744821476744712
2.789421237905226
2.8347456868869436
2.8808065989196985
2.9276159405654183
2.9751858728270184
3.0235287543078173
3.072657144422282
3.122583806658948
3.1733217118963575
3.2248840417728712
3.2772841921112463
3.3305357763988477
3.3846526293244166
3.4396488103723017
3.495538607475094
3.5523365407256158
3.6100573661492157
3.668716079537367
3.7283279203435518
3.7889083756424538
3.8504731841534743
3.9130383403296336
3.9766200985129068
4.041234977157078
4.106899763119216
4.173631516020873
4.241447572680152
4.3103655516157895
4.380403357624421
4.451579186432224
4.523911529422142
4.597419178437921
4.672121230666204
4.748037093597956
4.8251864900705
4.903589463391485
4.9832663825461125
5.064237947488967
5.146525194521837
5.23014950175892
5.315132594680822
5.4014965517788145
5.48926381029079
5.578457172030429
5.669099809311081
5.761215270965897
5.854827488465784
5.94996078213677
6.046639867478394
6.144889861584755
6.244736289669895
6.346205091699229
6.4493226291286945
6.554115691753434
6.660611504667742
6.76883773533811
6.878822500791195
6.990594374918581
7.104182395900246
7.219616073748631
7.33692539797531
7.456140845382217
7.577293387979482
7.700414501031913
7.825536171236232
7.952690905031169
8.081911737042596
8.21323223866587
8.346686526787648
8.482309272649392
8.620135710854925
8.760201648524323
8.902543474596555
9.047198169283291
9.194203313676296
9.343597099510955
9.495418339088431
9.64970647535905
9.806501592169521
9.965844424676675
10.127776369930377
10.292339497628461
10.459576561046358
10.629531008144331
10.802246992855203
10.977769386555497
11.156143789722966
11.33741654378349
11.52163474315057
11.708846247460363
11.899099694005546
12.092444510371227
12.288930927276176
12.488609991622683
12.691533579758463
12.897754410954075
13.107326061099325
13.320302976622198
13.536740488633948
13.756694827304067
13.980223136468815
14.207383488477094
14.438234899277553
14.67283734375087
14.911251771291148
15.153540121640479
15.399765340980775
15.64999139828715
15.90428330194695
16.162707116648825
16.425329980546252
16.692220122699972
16.963446880803776
17.23908071919832
17.519193247177704
17.803857237593455
18.093146645760825
18.387136628672252
18.685903564523063
18.98952507255443
19.298080033218746
19.611648608672624
19.93031226360295
20.254153786391285
20.5832573106222
20.917708336940997
21.257593755266736
21.60300186736609
21.95402240979399
22.310746577207098
22.673267046056054
23.041677998662685
23.416075147688428
23.79655576100034
24.183218686941213
24.576164380010194
24.975494926960714
25.38131407332251
25.793727250354586
26.2128416024361
26.63876601490228
27.07161114233275
27.511489437299407
27.958515179581482
28.412804505855174
28.874475439865925
29.343647923090757
29.820443845898893
30.304987079218723
30.79740350671934
31.297821057514916
31.806369739400473
32.32318167262777
32.84839112422999
33.3821345429041
33.924550594459994
34.47578019784574
35.03596656175814
35.60525522184812
36.18379407853065
36.771733435409175
37.36922603832424
37.976427115036586
38.59349441555516
39.22058825312042
39.8578715458534
40.50550985908161
41.16367144835276
41.83252730314726
42.5122511913011
43.20301970415042
43.90501230240976
44.61841136279572
45.343402225408155
46.08017324188124
46.82891582431701
47.589824495013985
48.36309693700379
49.14893404540882
49.94753997963474
50.75912221641063
51.5838916036912
52.42206241543482
53.27385240727165
54.13948287307619
55.0191787024591
55.913168439193264
56.82168434058917
57.74496243783504
58.68324259731729
59.636768582937606
60.6057881194425
61.59055295678179
62.591318935512874
63.60834605326775
64.64189853230022
65.69224488813025
66.75965799930398
67.84441517828733
68.94679824351131
70.06709359258795
71.20559227671619
72.36259007629651
73.53838757777433
74.73329025173177
75.9476085322487
77.18165789755301
78.43575895198147
79.71023750927216
81.0054246772105
82.32165694365074
83.65927626393491
85.01863014973229
86.40007175932254
87.8039599893458
89.23065956804356
90.68054115001428
92.15398141250932
93.651363153293
95.17307539009286
96.71951346166603
98.29107913050771
99.8881806872286
101.51123305662796
103.1606579054907
104.83688375213588
106.54034607774517
108.2714874395001
110.03075758555791
111.81861357189558
113.63551988105233
115.4819485428014
117.35837925678283
119.26529951712888
121.20320473911427
123.17259838786416
125.17399210915406
127.20790586233463
129.2748680554161
131.3754156823482
133.51009446253062
135.6794589825899
137.8840728404602
140.1245087918054
142.40134889882052
144.71518468145024
147.06661727106518
149.4562575666348
151.8847263934386
154.35265466435527
156.86068354377295
159.40946461416308
161.9996600453606
164.63194276659482
167.3069966413151
170.02551664485827
172.788209045002
175.59579158545182
178.44899367231045
181.3485565635765
184.29523356172209
187.28979020939968
190.33300448832918
193.42566702141673
196.56858127815724
199.76256378337442
203.00844432935315
206.3070661914185
209.6592863470172
213.06597569835904
216.52801929867672
220.04631658216104
223.6217815976325
227.25534324601014
230.947945521639
234.70054775753835
238.51412487463466
242.3896676350453
246.3281828994771
250.33069388880728
254.39824044991468
258.5318793258307
262.73268443027985
267.0017471266809
271.34017651168153
275.7490997033001
280.2296621337498
284.78302784702
289.4103798012929
294.1129201762754
298.8918706855232
303.74847289384
308.6839885398348
313.69969986371984
318.7969099404349
323.9769430181839
329.24114486247316
334.59088310573964
340.02754760265964
345.5525507912312
351.16732805972333
356.8733381195885
362.6720633844337
368.5650103551489
374.55371001129436
380.6397182088474
386.8246160844112
393.1100104659914
399.49753429044915
405.988847027735
412.58563511201663
419.2896123798126
426.10252051524503
433.0261295025267
440.06223808579944
447.21267423644645
454.47929562799675
461.8639901187463
469.36867624222
476.99530370560467
484.74585389628106
492.62234039658495
500.6268095069325
508.7613407774468
517.0280475482227
525.4290774983692
533.9666132039731
542.6428727051299
551.4601100821876
560.4206160413532
569.5267185098152
578.780783240536
588.1852144268723
597.742455327179
607.4549888995657
617.3253384469665
627.3560682726896
637.5497843466198
647.9091349822462
658.4368115246906
669.1355490499155
680.0081270752921
691.0573702817153
702.2861492474533
713.697381193919
725.2940307435586
737.0791106900593
749.0556827810678
761.2268585136268
773.595799942539
786.1657205018652
798.9398858397693
811.9216146669286
825.1142796187305
838.5213081314804
852.1461833328431
865.9924449467542
880.0636902130366
894.363574821959
908.8958138639786
923.6641827949151
938.6725184168115
953.9247198747289
969.424749669738
985.1766346883724
1001.1844672488095
1017.4524061640467
1033.984677822356
1050.7855772852968
1067.8594694035623
1085.210789950964
1102.8440467768423
1120.7638209771949
1138.974768084841
1157.4816192789235
1176.2891826140612
1195.4023442694793
1214.8260698184238
1234.5654055182167
1254.6254796212684
1275.0115037073838
1295.7287740377278
1316.7826729307903
1338.1786701606966
1359.922324378254
1382.0192845550791
1404.4752914511923
1427.2961791064638
1450.4878763562824
1474.0564083718623
1498.0078982255777
1522.3485684817217
1547.0847428131249
1572.2228476440348
1597.769413819692
1623.73107830304
1650.1145858989898
1676.9267910067165
1704.1746594004262
1731.8652700390467
1760.005816905334
1788.6036108748672
1817.6660816153903
1847.2007795170402
1877.2153776539226
1907.7176737775667
1938.715592342777
1970.217186566384
2002.2306405194659
2034.764271253563
2067.8265309614276
2101.4260091728966
2135.5714349864393
2170.2716793369627
2205.5357573004785
2241.3728304361916
2277.7922091666696
2314.803355196683
2352.41588397133
2390.639567174124
2429.48433526567
2468.9602800635685
2509.077657364269
2549.846889607506
2591.278568584035
2633.3834581873734
2676.172497210231
2719.6568021864005
2763.8476702788266
2808.7565822145752
2854.395205267526
2900.775396289505
2947.9092047906806
2995.808876070022
3044.4868543965886
3093.9557862425468
3144.228523568714
3195.318127163464
3247.237870035907
3300.0012408642133
3353.6219474999316
3408.113920529283
3463.4913168923063
3519.768523560808
3576.96016127609
3635.0810883473805
3694.1464045120083
3754.171454858309
3815.1718338122355
3877.1633891887805
3940.162226309215
4004.184712185227
4069.2474797710606
4135.367432284714
4202.561747599382
4270.847882706259
4340.243578249816
4410.766863136802
4482.436059220156
4555.269786058956
4629.2869657557885
4704.50682787267
4780.94891442686
4858.633084967869
4937.579521736913
5017.808734910249
5099.3415679277
5182.199202907731
5266.403166150543
5351.975333730585
5438.937937179908
5527.313569263921
5617.12518985092
5708.396131877051
5801.150107408189
5895.411213800269
5991.20393995976
6088.55317270587
6187.484203236068
6288.022733696734
6390.194883860526
6494.027197912261
6599.546651345083
6706.780657968619
6815.757077031069
6926.504220457018
7039.050860202803
7153.4262357314465
7269.660061609025
7387.782535224467
7507.824344634821
7629.816676537925
7753.791224374696
7879.780196563057
8007.816324865602
8137.93287289328
8270.163644747263
8404.542993801155
8541.10583162599
8679.88763706019
8820.924465426922
8964.252957901252
9109.910351029417
9257.934486402857
9408.363820489441
9561.237434624341
9716.595045163354
9874.477013801137
10034.924358057127
10197.978761931863
10363.682586736375
10532.078882097623
10703.21139714277
10877.124591865075
11053.86364867457
11233.474484136435
11416.003760899966
11601.498899821541
11790.008092284457
11981.580312718994
12176.26533132594
12374.11372700676
12575.17690050394
12779.507087754899
12987.157373462709
13198.181704887484
13412.63490586184
13630.572691033965
13852.051680342269
14077.129413725157
14305.864366069804
14538.315962403904
14774.54459333414
15014.611630735613
15258.579443696213
15506.51141471995
15758.471956193673
16014.526527121337
16274.741650130129
16539.184928753017
16807.925064991967
17081.031877166675
17358.576318053325
17640.630493317905
17927.267680249242
18218.562346796367
18514.590170915086
18815.42806022909
19121.154172010425
19431.847933484627
19747.590062465886
20068.4625883273
20394.548873312062
20725.933634190907
21062.702964271302
21404.94435576444
21752.746722515592
22106.200423103764
22465.397284316823
22830.430625007855
23201.39528033931
23578.387626421158
23961.50560534909
24350.848750649842
24746.518213139923
25148.616787204315
25557.248937502427
25972.520826107822
26394.540340088974
26823.417119538273
27259.26258605622
27702.189971698666
28152.314348394473
28609.75265784082
29074.62374188465
29547.048373397578
30027.14928765248
30515.051214210078
31010.880909323336
31514.767188868624
32026.840961812035
32547.23526421914
33076.08529381768
33613.528445121876
34159.70434512706
34714.7548895848
35278.824279867156
35852.05906042993
36434.608156884904
37026.622914690284
37628.257138470115
38239.66713197269
38861.01173867776
39492.45238306404
40134.15311254703
40786.28064009825
41449.004387557216
42122.496529646756
42806.932038703904
43502.48873013756
44209.34730862446
44927.691415056186
45657.707674248835
46399.58574342772
47153.5183615002
47919.701399128935
48698.333909618785
49489.61818063078
50293.759786735856
51110.96764282303
51941.45405837534
52785.43479262724
53643.129110618785
54514.75984016032
55400.55342972277
56300.74000726892
57215.553440039934
58145.23139531397
59090.01540215197
60050.15091414623
61025.88737318906
62017.478274277695
63025.18123137149
64049.25804431999
65089.97476687809
66147.60177582638
67222.41384121487
68314.69019774761
69424.71461732747
70552.77548278013
71699.165862775
72864.1835879643
74048.13132835913
75251.31667196253
76474.05220468072
77716.65559153215
78979.44965917652
80262.76247978507
81566.92745627271
82892.28340891593
84239.17466337809
85607.95114016422
86998.96844553029
88412.58796386908
89849.17695159728
91309.10863256859
92792.76229503621
94300.52339019165
95832.78363230475
97389.94110048993
98972.40034212696
100580.57247796173
102214.8753089148
103875.73342462583
105563.57831376085
107278.8484761127
109021.98953652297
110793.45436065416
112593.70317264379
114423.20367467037
116282.43116846116
118171.86867877532
120092.00707889296
122043.3452181432
124026.39005150512
126041.65677131317
128089.66894110377
130170.95863163687
132286.0665591264
134435.5422257181
136619.94406224927
138839.83957332827
141095.80548477196
143388.42789343747
145718.30241948972
148086.0343611432
150492.2388519167
152937.54102044477
155422.57615288542
157947.989857966
160514.43823471188
163122.58804290002
165773.11687628197
168466.71333862265
171204.0772225975
173985.91969159822
176812.96346449258
179685.9430033847
182605.60470442806
185572.707091738
188588.02101445507
191652.32984701128
194766.42969264867
197931.1295902463
201147.25172450813
204415.63163956424
207737.11845604458
211112.57509168022
214542.87848548667
218028.91982559237
221571.60478076802
225171.8537357177
228830.60203019466
232548.80020199972
236327.41423393058
240167.42580474346
244069.83254419037
248035.64829220308
252065.90336228703
256161.6448091951
260323.936700952
264553.86039529624
268852.5148206161
273221.01676145056
277660.5011486266
282172.12135411386
286757.04949066957
291416.4767163504
296151.6135439747
300963.6901556117
305853.9567221813
310823.68372824707
315874.16230208566
321006.7045511203
326222.6439028057
331523.3354510488
336910.1563082612
342384.5059631323
347947.8066442122
353601.50368940627
359347.0659214717
365185.98602961504
371119.78095729253
377149.99229630746
383278.1866873151
389505.95622683456
395834.9188808711
402266.71890526323
408803.0272728574
415445.54210762435
422195.9891258309
429056.12208437617
436027.7232364166
443112.6037943939
450312.60440058337
457629.5956052912
465065.4783528223
472622.1844753406
480301.67719475774
488105.9516327755
496037.0353292147
504096.98876876966
512287.905916316
520611.9147609217
529071.1778686969
537667.8929446226
546404.293403514
555282.6489502573
564305.2661694759
573474.48912478
582792.6999677478
592262.3195568067
601885.8080861713
611665.665724994
621604.4332669086
631704.6927901256
641969.0683282497
652400.2265520021
663000.877462018
673773.7750928996
684721.7182287134
695847.5511301069
707154.1642732453
718644.4951007549
730321.5287848634
742188.2990029457
754247.8887256688
766503.4310179421
778958.1098528873
791615.1609390248
804477.8725609086
817549.5864334217
830833.6985699428
844333.6601646293
858052.9784890348
871995.2178032891
886164.0002820903
900563.0069557412
915195.9786664746
930066.717040322
945179.0854747666
960537.0101424503
976144.4810111916
992005.5528805673
